%YAML 1.1
%TAG !u! tag:unity3d.com,2011:
--- !u!135 &1507880470436521256
SphereCollider:
  m_ObjectHideFlags: 0
  m_CorrespondingSourceObject: {fileID: 0}
  m_PrefabInstance: {fileID: 0}
  m_PrefabAsset: {fileID: 0}
  m_GameObject: {fileID: 636749581248145443}
  m_Material: {fileID: 0}
  m_IsTrigger: 0
  m_Enabled: 1
  serializedVersion: 2
  m_Radius: 0.5
  m_Center: {x: 0, y: 0, z: 0}
--- !u!1001 &456174868689315962
PrefabInstance:
  m_ObjectHideFlags: 0
  serializedVersion: 2
  m_Modification:
    m_TransformParent: {fileID: 0}
    m_Modifications:
    - target: {fileID: 1045566282650566745, guid: b698632b69ef800438174a32d42f6f67,
        type: 3}
      propertyPath: m_Name
      value: Death
      objectReference: {fileID: 0}
    - target: {fileID: 1536056459224157003, guid: b698632b69ef800438174a32d42f6f67,
        type: 3}
      propertyPath: m_Materials.Array.data[0]
      value: 
      objectReference: {fileID: 2100000, guid: 791b38331a0d60e408e06ad2b8c688be, type: 2}
    - target: {fileID: 5040195396523675958, guid: b698632b69ef800438174a32d42f6f67,
        type: 3}
      propertyPath: m_LocalPosition.x
      value: 0
      objectReference: {fileID: 0}
    - target: {fileID: 5040195396523675958, guid: b698632b69ef800438174a32d42f6f67,
        type: 3}
      propertyPath: m_LocalPosition.y
      value: 0
      objectReference: {fileID: 0}
    - target: {fileID: 5040195396523675958, guid: b698632b69ef800438174a32d42f6f67,
        type: 3}
      propertyPath: m_LocalPosition.z
      value: 0
      objectReference: {fileID: 0}
    - target: {fileID: 5040195396523675958, guid: b698632b69ef800438174a32d42f6f67,
        type: 3}
      propertyPath: m_LocalRotation.x
      value: 0
      objectReference: {fileID: 0}
    - target: {fileID: 5040195396523675958, guid: b698632b69ef800438174a32d42f6f67,
        type: 3}
      propertyPath: m_LocalRotation.y
      value: 0
      objectReference: {fileID: 0}
    - target: {fileID: 5040195396523675958, guid: b698632b69ef800438174a32d42f6f67,
        type: 3}
      propertyPath: m_LocalRotation.z
      value: 0
      objectReference: {fileID: 0}
    - target: {fileID: 5040195396523675958, guid: b698632b69ef800438174a32d42f6f67,
        type: 3}
      propertyPath: m_LocalRotation.w
      value: 1
      objectReference: {fileID: 0}
    - target: {fileID: 5040195396523675958, guid: b698632b69ef800438174a32d42f6f67,
        type: 3}
      propertyPath: m_RootOrder
      value: 0
      objectReference: {fileID: 0}
    - target: {fileID: 5040195396523675958, guid: b698632b69ef800438174a32d42f6f67,
        type: 3}
      propertyPath: m_LocalEulerAnglesHint.x
      value: 0
      objectReference: {fileID: 0}
    - target: {fileID: 5040195396523675958, guid: b698632b69ef800438174a32d42f6f67,
        type: 3}
      propertyPath: m_LocalEulerAnglesHint.y
      value: 0
      objectReference: {fileID: 0}
    - target: {fileID: 5040195396523675958, guid: b698632b69ef800438174a32d42f6f67,
        type: 3}
      propertyPath: m_LocalEulerAnglesHint.z
      value: 0
      objectReference: {fileID: 0}
    - target: {fileID: 5040195396523675958, guid: b698632b69ef800438174a32d42f6f67,
        type: 3}
      propertyPath: m_LocalScale.x
      value: 0.5
      objectReference: {fileID: 0}
    - target: {fileID: 5040195396523675958, guid: b698632b69ef800438174a32d42f6f67,
        type: 3}
      propertyPath: m_LocalScale.y
      value: 0.5
      objectReference: {fileID: 0}
    - target: {fileID: 5040195396523675958, guid: b698632b69ef800438174a32d42f6f67,
        type: 3}
      propertyPath: m_LocalScale.z
      value: 0.5
      objectReference: {fileID: 0}
    - target: {fileID: 5333799813757302330, guid: b698632b69ef800438174a32d42f6f67,
        type: 3}
      propertyPath: m_Mesh
      value: 
      objectReference: {fileID: 10207, guid: 0000000000000000e000000000000000, type: 0}
    - target: {fileID: 5323421581640199844, guid: b698632b69ef800438174a32d42f6f67,
        type: 3}
      propertyPath: m_UseGravity
      value: 1
      objectReference: {fileID: 0}
    m_RemovedComponents:
    - {fileID: 8561790594052883048, guid: b698632b69ef800438174a32d42f6f67, type: 3}
  m_SourcePrefab: {fileID: 100100000, guid: b698632b69ef800438174a32d42f6f67, type: 3}
--- !u!1 &636749581248145443 stripped
GameObject:
  m_CorrespondingSourceObject: {fileID: 1045566282650566745, guid: b698632b69ef800438174a32d42f6f67,
    type: 3}
  m_PrefabInstance: {fileID: 456174868689315962}
  m_PrefabAsset: {fileID: 0}
